[gd_scene load_steps=6 format=3]

[ext_resource type="Shader" path="res://scene/gems/step_diamond.gdshader" id="1_rs3tp"]
[ext_resource type="ArrayMesh" uid="uid://pshx6hqe7a35" path="res://model/step_diamond_normal.obj" id="2_u5hwb"]
[ext_resource type="Script" path="res://scene/gems/ConvexGem.gd" id="3_6aecx"]
[ext_resource type="Script" path="res://scene/Camera/Camera3D.gd" id="4_7ope0"]

[sub_resource type="ShaderMaterial" id="ShaderMaterial_g76gb"]
render_priority = 0
shader = ExtResource("1_rs3tp")
shader_parameter/uAbsorption = Vector3(0.29804, 1.97647, 2)
shader_parameter/uRefractionIndex = 2.42
shader_parameter/totalOfFacets = 79
shader_parameter/facetPoints = PackedVector3Array(-0.0212, 0.317533, -0.1528, -0.127733, 0.236767, -0.187, -0.133567, 0.2878, -0.1528, -0.1772, -0.0685667, -0.1528, -0.133567, -0.289267, -0.1528, -0.127733, -0.2389, -0.187, 0.0212, -0.318167, -0.1528, 0.127733, -0.2389, -0.187, 0.133567, -0.289267, -0.1528, 0.1772, 0.0657333, -0.1528, 0.133567, 0.2878, -0.1528, 0.127733, 0.236767, -0.187, 0.0585333, 0.4122, 0.0973, -0.233567, 0.335367, 0.0973333, -0.207533, 0.385767, 0.0863333, -0.268167, 0.1055, 0.0973333, -0.2336, -0.335433, 0.0973333, -0.2076, -0.384767, 0.0863333, -0.0585333, -0.41, 0.0973, 0.2336, -0.335433, 0.0973333, 0.2076, -0.384767, 0.0863333, 0.2682, -0.106633, 0.0973333, 0.233567, 0.335367, 0.0973333, 0.207567, 0.385767, 0.0863333, 0, 0.2088, -0.247467, 0.0570667, 0.193533, -0.247467, 0.0717333, -0.0441, -0.247467, 0.0570667, -0.193133, -0.247467, 0, -0.207867, -0.247467, -0.0570667, -0.193133, -0.247467, -0.0717333, 0.0439667, -0.247467, -0.0570667, 0.193533, -0.247467, 0.0417, 0.434833, -0.0194667, -0.2173, 0.387567, -0.0195, -0.222833, 0.317067, -0.0690667, -0.2916, 0.0874667, -0.0195333, -0.2173, -0.3876, -0.0195, -0.222833, -0.3188, -0.0690667, -0.0417, -0.4336, -0.0194667, 0.2173, -0.3876, -0.0195, 0.222833, -0.3188, -0.0690667, 0.2916, -0.0896, -0.0195333, 0.2173, 0.387567, -0.0195, 0.222833, 0.317067, -0.0690667, -0.0651333, 0.476, 0.0393, -0.286167, 0.381433, 0.0393333, -0.2408, 0.428533, 0.0346667, -0.331467, -0.1124, 0.0394, -0.240833, -0.427833, 0.0393667, 0.0651333, -0.473833, 0.0393, 0.286167, -0.381833, 0.0393333, 0.331467, 0.1107, 0.0394, 0.240833, 0.4287, 0.0393667, 0.2861, 0.381233, 0.0347333, 0.0499333, 0.352467, 0.129167, -0.0585, 0.465133, 0.0543667, -0.1894, 0.290967, 0.129167, -0.173433, 0.339633, 0.118733, -0.2342, 0.417833, 0.0544333, -0.2681, 0.364933, 0.0649333, -0.216333, 0.0971, 0.129167, -0.320133, -0.106867, 0.0545333, -0.1894, -0.290767, 0.129167, -0.173433, -0.338533, 0.118733, -0.234233, -0.416933, 0.0544333, -0.268167, -0.365233, 0.0649333, -0.0499333, -0.350333, 0.129167, 0.0585333, -0.462933, 0.0543667, 0.1894, -0.290767, 0.129167, 0.173433, -0.338533, 0.118733, 0.234233, -0.416933, 0.0544333, 0.268167, -0.365233, 0.0649333, 0.216333, -0.0977667, 0.129167, 0.3201, 0.105267, 0.0545333, 0.1894, 0.290967, 0.129167, 0.173433, 0.339633, 0.118733, 0.234233, 0.417833, 0.0544333, 0.268133, 0.364933, 0.0649333, 0, -0.2186, 0.1396)
shader_parameter/facetNormals = PackedVector3Array(0, 0.6911, -0.722759, -0.469634, 0.451177, -0.75887, -0.46789, 0.455826, -0.757167, -0.700932, 0, -0.713229, -0.460949, -0.462012, -0.757675, -0.461836, -0.459746, -0.758512, 0, -0.692447, -0.721468, 0.461836, -0.459746, -0.758512, 0.460949, -0.462012, -0.757675, 0.700932, 0, -0.713229, 0.46789, 0.455826, -0.757167, 0.469634, 0.451177, -0.75887, 0, 0.581238, 0.813733, -0.395614, 0.391093, 0.830985, -0.391498, 0.380624, 0.837768, -0.601462, 0, 0.798902, -0.388656, -0.396292, 0.831805, -0.384382, -0.384755, 0.839174, 0, -0.581238, 0.813733, 0.388656, -0.396292, 0.831805, 0.384382, -0.384755, 0.839174, 0.600584, 0, 0.799562, 0.395614, 0.391093, 0.830985, 0.391299, 0.380118, 0.83809, 0, 0.576798, -0.816887, 0.388608, 0.373335, -0.842381, 0.590843, 0, -0.806786, 0.372195, -0.370511, -0.850995, 0, -0.558292, -0.829645, -0.372195, -0.370511, -0.850995, -0.590843, 0, -0.806786, -0.388608, 0.373335, -0.842381, 0, 0.772335, -0.635216, -0.533379, 0.512037, -0.673293, -0.531657, 0.517948, -0.670127, -0.779536, 0, -0.626357, -0.528675, -0.521499, -0.669733, -0.526718, -0.527934, -0.666224, 0, -0.778974, -0.627056, 0.528675, -0.521499, -0.669733, 0.526718, -0.527934, -0.666224, 0.779536, 0, -0.626357, 0.533379, 0.512037, -0.673293, 0.531657, 0.517948, -0.670127, 0, 0.999056, -0.043438, -0.721914, 0.691348, -0.0296364, -0.721106, 0.691639, -0.040522, -0.999975, 0, -0.0070932, -0.712078, -0.701191, -0.0357245, 0, -0.999344, -0.0362077, 0.71221, -0.701329, -0.0299215, 0.999975, 0, -0.0070932, 0.721646, 0.691076, -0.0405053, 0.721385, 0.691899, -0.0296522, 0, 0.425863, 0.904788, 0, 0.687138, 0.726527, -0.291726, 0.296496, 0.909388, -0.289778, 0.286466, 0.913217, -0.46317, 0.444667, 0.766645, -0.468795, 0.455577, 0.756757, -0.488556, 0, 0.872533, -0.676214, 0, 0.736706, -0.286177, -0.30069, 0.909774, -0.284316, -0.289902, 0.91385, -0.456458, -0.450624, 0.767193, -0.462361, -0.462602, 0.756454, 0, -0.426387, 0.904541, 0, -0.687138, 0.726527, 0.286177, -0.30069, 0.909774, 0.284316, -0.289902, 0.91385, 0.456458, -0.450624, 0.767193, 0.462361, -0.462602, 0.756454, 0.488556, 0, 0.872533, 0.675138, 0, 0.737691, 0.291726, 0.296496, 0.909388, 0.289778, 0.286466, 0.913217, 0.463696, 0.445169, 0.766036, 0.468946, 0.45535, 0.7568, 0, 0, 1)
shader_parameter/rayDepth = 7
shader_parameter/initialRayStrength = 4.0

[node name="Node3D" type="Node3D"]

[node name="StepCutDiamond" type="MeshInstance3D" parent="."]
material_override = SubResource("ShaderMaterial_g76gb")
mesh = ExtResource("2_u5hwb")
script = ExtResource("3_6aecx")
gemColour = Color(0.85098, 0.0117647, 0, 1)

[node name="OmniLight3D" type="DirectionalLight3D" parent="."]
transform = Transform3D(1, 0, 0, 0, -0.831586, 0.555396, 0, -0.555396, -0.831586, 0.0272, 1.1168, -1.70398)

[node name="DirectionalLight3D" type="DirectionalLight3D" parent="."]
transform = Transform3D(1, 0, 0, 0, 0.894217, 0.447634, 0, -0.447634, 0.894217, 0, 0.855324, 1.4793)

[node name="Camera3D" type="Camera3D" parent="."]
transform = Transform3D(1, 0, 0, 0, 1, 0, 0, 0, 1, 0, 0, 1.80326)
current = true
script = ExtResource("4_7ope0")
