# Blender v3.2.1 OBJ File: ''
# www.blender.org
o diamond_oval
v 0.344371 -0.335396 0.004841
v 0.344371 -0.335396 -0.011026
v 0.475424 -0.138776 -0.011026
v 0.475424 -0.138776 0.004843
v 0.121803 -0.394700 0.004845
v 0.344371 -0.335396 0.004841
v -0.123337 -0.394700 -0.011026
v 0.121803 -0.394700 -0.011026
v -0.345905 -0.335396 -0.011026
v -0.123337 -0.394700 -0.011026
v -0.345905 -0.335396 0.004841
v -0.123337 -0.394700 0.004844
v -0.345905 -0.335396 0.004841
v -0.476958 -0.138776 0.004844
v -0.345905 -0.335396 -0.011026
v -0.476958 -0.138776 -0.011026
v -0.476958 -0.138776 -0.011026
v -0.476958 -0.138776 0.004844
v -0.476958 0.142960 0.004844
v -0.476958 0.142960 -0.011026
v 0.475424 -0.138776 -0.011026
v 0.475424 0.142960 -0.011026
v 0.475424 0.142960 0.004843
v 0.475424 -0.138776 0.004843
v 0.344371 0.339581 0.004841
v 0.475424 0.142960 0.004843
v 0.475424 0.142960 -0.011026
v 0.344371 0.339581 -0.011026
v 0.121803 0.398884 0.004846
v 0.344371 0.339581 0.004841
v -0.123337 0.398884 -0.011026
v 0.121803 0.398884 -0.011026
v -0.123337 0.398884 0.004844
v 0.121803 0.398884 0.004846
v -0.345905 0.339581 -0.011026
v -0.123337 0.398884 -0.011026
v -0.345905 0.339581 0.004841
v -0.123337 0.398884 0.004844
v -0.345905 0.339581 0.004841
v -0.476958 0.142960 0.004844
v -0.345905 0.339581 -0.011026
v -0.476958 0.142960 -0.011026
v 0.344371 0.339581 0.004841
v 0.231823 0.181390 0.151262
v 0.475424 0.142960 0.004843
v 0.174657 0.283588 0.094743
v 0.344371 0.339581 0.004841
v 0.121803 0.398884 0.004846
v 0.231823 0.181390 0.151262
v 0.344371 0.339581 0.004841
v 0.174657 0.283588 0.094743
v 0.105320 0.175936 0.192259
v 0.200619 0.102810 0.192259
v 0.231823 0.181390 0.151262
v 0.105320 0.175936 0.192259
v 0.200619 0.102810 0.192259
v 0.475424 0.142960 0.004843
v 0.231823 0.181390 0.151262
v 0.242338 0.002092 0.192259
v 0.174657 0.283588 0.094743
v -0.000749 0.298278 0.102578
v 0.105320 0.175936 0.192259
v 0.121803 0.398884 0.004846
v -0.000749 0.298278 0.102578
v -0.106854 0.175936 0.192259
v 0.105320 0.175936 0.192259
v 0.475424 -0.138776 0.004843
v 0.475424 0.142960 0.004843
v 0.242338 0.002092 0.192259
v -0.202154 0.102810 0.192259
v -0.243872 0.002092 0.192259
v 0.242338 0.002092 0.192259
v 0.200619 0.102810 0.192259
v -0.202154 -0.098626 0.192259
v 0.200619 -0.098626 0.192259
v 0.105320 -0.171752 0.192259
v -0.106854 -0.171752 0.192259
v -0.000749 0.298278 0.102578
v 0.121803 0.398884 0.004846
v -0.123337 0.398884 0.004844
v -0.345905 0.339581 0.004841
v -0.476958 0.142960 0.004844
v -0.233357 0.181390 0.151262
v -0.176191 0.283588 0.094743
v -0.123337 0.398884 0.004844
v -0.345905 0.339581 0.004841
v -0.233357 0.181390 0.151262
v -0.176191 0.283588 0.094743
v -0.345905 0.339581 0.004841
v -0.106854 0.175936 0.192259
v -0.202154 0.102810 0.192259
v -0.106854 0.175936 0.192259
v -0.233357 0.181390 0.151262
v -0.202154 0.102810 0.192259
v -0.233357 0.181390 0.151262
v -0.476958 0.142960 0.004844
v -0.243872 0.002092 0.192259
v -0.176191 0.283588 0.094743
v -0.106854 0.175936 0.192259
v -0.000749 0.298278 0.102578
v -0.123337 0.398884 0.004844
v -0.476958 -0.138776 0.004844
v -0.243872 0.002092 0.192259
v -0.476958 0.142960 0.004844
v 0.344371 -0.335396 0.004841
v 0.475424 -0.138776 0.004843
v 0.231823 -0.177206 0.151262
v 0.174657 -0.279404 0.094742
v 0.121803 -0.394700 0.004845
v 0.344371 -0.335396 0.004841
v 0.231823 -0.177206 0.151262
v 0.174657 -0.279404 0.094742
v 0.344371 -0.335396 0.004841
v 0.105320 -0.171752 0.192259
v 0.200619 -0.098626 0.192259
v 0.105320 -0.171752 0.192259
v 0.231823 -0.177206 0.151262
v 0.200619 -0.098626 0.192259
v 0.231823 -0.177206 0.151262
v 0.475424 -0.138776 0.004843
v 0.242338 0.002092 0.192259
v 0.174657 -0.279404 0.094742
v 0.105320 -0.171752 0.192259
v -0.000749 -0.294094 0.102578
v 0.121803 -0.394700 0.004845
v -0.000749 -0.294094 0.102578
v 0.105320 -0.171752 0.192259
v -0.106854 -0.171752 0.192259
v -0.000749 -0.294094 0.102578
v -0.123337 -0.394700 0.004844
v 0.121803 -0.394700 0.004845
v -0.345905 -0.335396 0.004841
v -0.233357 -0.177206 0.151262
v -0.476958 -0.138776 0.004844
v -0.176191 -0.279404 0.094742
v -0.345905 -0.335396 0.004841
v -0.123337 -0.394700 0.004844
v -0.233357 -0.177206 0.151262
v -0.345905 -0.335396 0.004841
v -0.176191 -0.279404 0.094742
v -0.106854 -0.171752 0.192259
v -0.202154 -0.098626 0.192259
v -0.233357 -0.177206 0.151262
v -0.106854 -0.171752 0.192259
v -0.202154 -0.098626 0.192259
v -0.476958 -0.138776 0.004844
v -0.233357 -0.177206 0.151262
v -0.243872 0.002092 0.192259
v -0.176191 -0.279404 0.094742
v -0.000749 -0.294094 0.102578
v -0.106854 -0.171752 0.192259
v -0.123337 -0.394700 0.004844
v -0.088103 0.002092 -0.367170
v -0.345905 0.339581 -0.011026
v -0.242792 0.326492 -0.055780
v -0.000767 0.002092 -0.396193
v -0.242792 0.326492 -0.055780
v -0.345905 0.339581 -0.011026
v -0.123337 0.398884 -0.011026
v -0.000761 0.318330 -0.106800
v -0.242792 0.326492 -0.055780
v -0.123337 0.398884 -0.011026
v -0.000767 0.002092 -0.396193
v 0.121803 0.398884 -0.011026
v -0.000761 0.318330 -0.106800
v -0.123337 0.398884 -0.011026
v 0.475424 0.142960 -0.011026
v 0.238249 0.002079 -0.246334
v 0.086569 0.002092 -0.367170
v 0.376664 0.157180 -0.085035
v 0.376664 0.157180 -0.085035
v 0.086569 0.002092 -0.367170
v 0.344371 0.339581 -0.011026
v -0.000767 0.002092 -0.396193
v 0.241258 0.326492 -0.055780
v 0.344371 0.339581 -0.011026
v 0.086569 0.002092 -0.367170
v 0.241258 0.326492 -0.055780
v 0.121803 0.398884 -0.011026
v 0.344371 0.339581 -0.011026
v -0.000761 0.318330 -0.106800
v 0.121803 0.398884 -0.011026
v 0.241258 0.326492 -0.055780
v -0.000767 0.002092 -0.396193
v -0.476958 -0.138776 -0.011026
v -0.239783 0.002079 -0.246334
v -0.088103 0.002092 -0.367170
v -0.378198 -0.152996 -0.085035
v -0.378198 -0.152996 -0.085035
v -0.088103 0.002092 -0.367170
v -0.345905 -0.335396 -0.011026
v -0.000767 0.002092 -0.396193
v -0.242792 -0.322308 -0.055780
v -0.345905 -0.335396 -0.011026
v -0.088103 0.002092 -0.367170
v -0.242792 -0.322308 -0.055780
v -0.123337 -0.394700 -0.011026
v -0.345905 -0.335396 -0.011026
v -0.000761 -0.314146 -0.106800
v -0.123337 -0.394700 -0.011026
v -0.242792 -0.322308 -0.055780
v -0.000767 0.002092 -0.396193
v 0.475424 -0.138776 -0.011026
v 0.086569 0.002092 -0.367170
v 0.238249 0.002079 -0.246334
v 0.376664 -0.152996 -0.085035
v 0.376664 -0.152996 -0.085035
v 0.344371 -0.335396 -0.011026
v 0.086569 0.002092 -0.367170
v 0.086569 0.002092 -0.367170
v 0.344371 -0.335396 -0.011026
v 0.241258 -0.322308 -0.055780
v -0.000767 0.002092 -0.396193
v 0.241258 -0.322308 -0.055780
v 0.344371 -0.335396 -0.011026
v 0.121803 -0.394700 -0.011026
v -0.000761 -0.314146 -0.106800
v 0.241258 -0.322308 -0.055780
v 0.121803 -0.394700 -0.011026
v -0.000767 0.002092 -0.396193
v 0.121803 -0.394700 -0.011026
v -0.123337 -0.394700 -0.011026
v -0.000761 -0.314146 -0.106800
v 0.475424 0.142960 -0.011026
v 0.475424 -0.138776 -0.011026
v 0.238249 0.002079 -0.246334
v -0.476958 0.142960 -0.011026
v -0.088103 0.002092 -0.367170
v -0.239783 0.002079 -0.246334
v -0.378198 0.157180 -0.085035
v -0.476958 0.142960 -0.011026
v -0.239783 0.002079 -0.246334
v -0.476958 -0.138776 -0.011026
v -0.378198 0.157180 -0.085035
v -0.345905 0.339581 -0.011026
v -0.088103 0.002092 -0.367170
v -0.378198 0.157180 -0.085035
v -0.476958 0.142960 -0.011026
v -0.345905 0.339581 -0.011026
v -0.378198 -0.152996 -0.085035
v -0.345905 -0.335396 -0.011026
v -0.476958 -0.138776 -0.011026
v 0.376664 -0.152996 -0.085035
v 0.475424 -0.138776 -0.011026
v 0.344371 -0.335396 -0.011026
v 0.376664 0.157180 -0.085035
v 0.344371 0.339581 -0.011026
v 0.475424 0.142960 -0.011026
vn 0.8321 -0.5546 0.0000
vn -0.2575 -0.9663 0.0000
vn 0.0000 -1.0000 0.0000
vn 0.0000 -0.0000 1.0000
vn -0.8321 -0.5546 0.0000
vn -1.0000 0.0000 0.0000
vn 1.0000 0.0000 0.0000
vn 0.8321 0.5546 0.0000
vn 0.2575 0.9663 0.0000
vn 0.0000 1.0000 0.0000
vn -0.2575 0.9663 0.0000
vn -0.8321 0.5546 0.0000
vn 0.5227 0.3484 0.7781
vn 0.1743 0.6539 0.7362
vn 0.2318 0.5668 0.7906
vn 0.2740 0.3571 0.8930
vn 0.5278 0.2186 0.8207
vn 0.0876 0.6372 0.7657
vn 0.0000 0.5912 0.8065
vn 0.6266 -0.0000 0.7793
vn -0.0000 0.6968 0.7173
vn -0.5227 0.3484 0.7781
vn -0.1742 0.6539 0.7362
vn -0.2318 0.5668 0.7906
vn -0.2740 0.3571 0.8930
vn -0.5278 0.2186 0.8207
vn -0.0875 0.6372 0.7657
vn -0.6266 -0.0000 0.7793
vn 0.5227 -0.3484 0.7781
vn 0.1743 -0.6539 0.7362
vn 0.2318 -0.5668 0.7906
vn 0.2318 -0.5668 0.7905
vn 0.2740 -0.3571 0.8930
vn 0.5278 -0.2186 0.8207
vn 0.0876 -0.6372 0.7657
vn 0.0000 -0.5912 0.8065
vn -0.0000 -0.6968 0.7173
vn -0.5227 -0.3484 0.7781
vn -0.1742 -0.6539 0.7362
vn -0.2318 -0.5668 0.7906
vn -0.2318 -0.5668 0.7905
vn -0.2740 -0.3571 0.8930
vn -0.5278 -0.2186 0.8207
vn -0.0876 -0.6372 0.7657
vn -0.2510 0.6054 -0.7553
vn -0.1937 0.7269 -0.6588
vn -0.1316 0.6692 -0.7313
vn 0.0000 0.7653 -0.6437
vn 0.6034 0.2492 -0.7575
vn 0.6035 0.2491 -0.7575
vn 0.5210 0.3985 -0.7548
vn 0.2510 0.6054 -0.7553
vn 0.1937 0.7269 -0.6588
vn 0.1316 0.6692 -0.7313
vn -0.6034 -0.2494 -0.7574
vn -0.6035 -0.2491 -0.7575
vn -0.5210 -0.3985 -0.7548
vn -0.2510 -0.6054 -0.7553
vn -0.1937 -0.7269 -0.6588
vn -0.1316 -0.6692 -0.7313
vn 0.6034 -0.2493 -0.7575
vn 0.6035 -0.2491 -0.7575
vn 0.5210 -0.3985 -0.7548
vn 0.2510 -0.6054 -0.7553
vn 0.1937 -0.7269 -0.6588
vn 0.1316 -0.6692 -0.7313
vn 0.0000 -0.7653 -0.6437
vn 0.7043 0.0000 -0.7099
vn -0.6034 0.2492 -0.7575
vn -0.6035 0.2491 -0.7575
vn -0.7043 0.0000 -0.7099
vn -0.5210 0.3985 -0.7548
vn -0.5873 0.3914 -0.7085
vn -0.5873 -0.3914 -0.7085
vn 0.5873 -0.3914 -0.7085
vn 0.5873 0.3914 -0.7085
vn 0.2575 -0.9663 0.0000
s off
f 1//1 2//1 3//1 4//1
f 10//2 12//2 11//2 9//2
f 131//3 130//3 7//3 8//3
f 66//4 65//4 70//4 73//4
f 14//5 16//5 15//5 13//5
f 17//6 18//6 19//6 20//6
f 21//7 22//7 23//7 24//7
f 25//8 26//8 27//8 28//8
f 29//9 30//9 180//9 179//9
f 32//10 31//10 33//10 34//10
f 37//11 38//11 36//11 35//11
f 41//12 42//12 40//12 39//12
f 43//13 44//13 45//13
f 46//14 47//14 48//14
f 49//15 50//15 51//15
f 51//15 52//15 49//15
f 53//16 54//16 55//16
f 56//17 57//17 58//17
f 57//17 56//17 59//17
f 60//18 61//18 62//18
f 61//18 60//18 63//18
f 64//19 65//19 66//19
f 67//20 68//20 69//20
f 70//4 71//4 72//4 73//4
f 71//4 74//4 75//4 72//4
f 76//4 75//4 74//4 77//4
f 78//21 79//21 80//21
f 81//22 82//22 83//22
f 84//23 85//23 86//23
f 87//24 88//24 89//24
f 88//24 87//24 90//24
f 91//25 92//25 93//25
f 94//26 95//26 96//26
f 96//26 97//26 94//26
f 98//27 99//27 100//27
f 100//27 101//27 98//27
f 102//28 103//28 104//28
f 105//29 106//29 107//29
f 108//30 109//30 110//30
f 111//31 112//31 113//31
f 112//32 111//32 114//32
f 115//33 116//33 117//33
f 118//34 119//34 120//34
f 120//34 121//34 118//34
f 122//35 123//35 124//35
f 124//35 125//35 122//35
f 126//36 127//36 128//36
f 129//37 130//37 131//37
f 132//38 133//38 134//38
f 135//39 136//39 137//39
f 138//40 139//40 140//40
f 140//41 141//41 138//41
f 142//42 143//42 144//42
f 145//43 146//43 147//43
f 146//43 145//43 148//43
f 149//44 150//44 151//44
f 150//44 149//44 152//44
f 153//45 154//45 155//45
f 155//45 156//45 153//45
f 157//46 158//46 159//46
f 160//47 161//47 162//47
f 161//47 160//47 163//47
f 164//48 165//48 166//48
f 167//49 168//49 169//49
f 169//50 170//50 167//50
f 171//51 172//51 173//51
f 174//52 175//52 176//52
f 176//52 177//52 174//52
f 178//53 179//53 180//53
f 181//54 182//54 183//54
f 183//54 184//54 181//54
f 185//55 186//55 187//55
f 187//56 188//56 185//56
f 189//57 190//57 191//57
f 192//58 193//58 194//58
f 194//58 195//58 192//58
f 196//59 197//59 198//59
f 199//60 200//60 201//60
f 201//60 202//60 199//60
f 203//61 204//61 205//61
f 204//62 203//62 206//62
f 207//63 208//63 209//63
f 210//64 211//64 212//64
f 212//64 213//64 210//64
f 214//65 215//65 216//65
f 217//66 218//66 219//66
f 218//66 217//66 220//66
f 221//67 222//67 223//67
f 224//68 225//68 226//68
f 227//69 228//69 229//69
f 228//70 227//70 230//70
f 231//71 232//71 233//71
f 234//72 235//72 236//72
f 237//73 238//73 239//73
f 240//74 241//74 242//74
f 243//75 244//75 245//75
f 246//76 247//76 248//76
f 216//77 215//77 6//77 5//77
