# Blender v3.2.1 OBJ File: ''
# www.blender.org
o step_cut
v -0.063637 0.245967 -0.221174
v -0.125088 0.353338 -0.118588
v 0.125089 0.353338 -0.118588
v 0.063637 0.245967 -0.221174
v -0.107604 0.200207 -0.221174
v -0.211964 0.264085 -0.118588
v -0.107604 -0.202698 -0.221174
v -0.211964 -0.267101 -0.118588
v -0.063637 -0.246910 -0.221174
v -0.125088 -0.353757 -0.118588
v 0.063637 -0.246910 -0.221174
v 0.125089 -0.353757 -0.118588
v 0.107605 -0.202698 -0.221174
v 0.211964 -0.267101 -0.118588
v 0.107605 0.200206 -0.221174
v 0.211964 0.264085 -0.118588
v -0.149805 0.396771 0.108258
v 0.149805 0.396771 0.108258
v 0.175550 0.443014 0.075256
v -0.175549 0.443014 0.075256
v -0.297342 0.317458 0.075393
v -0.253558 0.291788 0.108327
v -0.253566 -0.292824 0.108321
v -0.297359 -0.318880 0.075381
v -0.149805 -0.394576 0.108258
v -0.175550 -0.440833 0.075255
v 0.149805 -0.394577 0.108257
v 0.175550 -0.440833 0.075255
v 0.297359 -0.318880 0.075381
v 0.253566 -0.292824 0.108321
v 0.253558 0.291788 0.108327
v 0.297343 0.317458 0.075393
v 0.000000 0.134440 -0.300047
v 0.000000 -0.129799 -0.300048
v -0.195392 0.475646 0.030090
v 0.195392 0.475646 0.030090
v -0.331359 0.333823 0.030016
v -0.331376 -0.335540 0.030037
v -0.195395 -0.473520 0.030097
v 0.195395 -0.473521 0.030097
v 0.331376 -0.335540 0.030037
v 0.331359 0.333823 0.030016
v -0.195591 0.476155 0.043911
v 0.195591 0.476155 0.043911
v -0.331457 0.334257 0.044109
v -0.331480 -0.336002 0.044093
v -0.195590 -0.474030 0.043911
v 0.195591 -0.474030 0.043911
v 0.331480 -0.336002 0.044093
v 0.331457 0.334257 0.044109
v -0.116942 0.330342 0.139641
v 0.116942 0.330342 0.139641
v -0.197738 0.250765 0.139641
v -0.197738 -0.251342 0.139641
v -0.116942 -0.328227 0.139641
v 0.116942 -0.328227 0.139641
v 0.197738 -0.251342 0.139641
v 0.197738 0.250765 0.139641
v 0.000000 0.000608 0.139641
vn 0.0000 0.6908 -0.7230
vn -0.4686 0.4541 -0.7577
vn -0.7010 0.0000 -0.7131
vn -0.4614 -0.4613 -0.7579
vn 0.0000 -0.6926 -0.7213
vn 0.4614 -0.4613 -0.7579
vn 0.7010 0.0000 -0.7131
vn 0.4686 0.4541 -0.7577
vn 0.0000 0.5809 0.8140
vn -0.3931 0.3854 0.8348
vn -0.6011 0.0000 0.7992
vn -0.3865 -0.3904 0.8356
vn 0.0000 -0.5808 0.8140
vn 0.3865 -0.3904 0.8356
vn 0.6011 -0.0000 0.7992
vn 0.3931 0.3854 0.8348
vn 0.0000 0.5774 -0.8165
vn 0.3889 0.3737 -0.8421
vn 0.5912 0.0000 -0.8065
vn 0.3726 -0.3705 -0.8508
vn 0.0000 -0.5586 -0.8294
vn -0.3726 -0.3705 -0.8508
vn -0.5912 0.0000 -0.8065
vn -0.3889 0.3737 -0.8421
vn 0.0000 0.7723 -0.6353
vn -0.5329 0.5141 -0.6721
vn -0.7796 0.0000 -0.6263
vn -0.5279 -0.5239 -0.6685
vn -0.0000 -0.7788 -0.6273
vn 0.5279 -0.5239 -0.6685
vn 0.7796 0.0000 -0.6263
vn 0.5329 0.5141 -0.6721
vn 0.0000 0.9993 -0.0368
vn -0.7217 0.6915 -0.0310
vn -1.0000 0.0000 -0.0072
vn -0.7121 -0.7014 -0.0321
vn -0.0000 -0.9993 -0.0369
vn 0.7121 -0.7014 -0.0321
vn 1.0000 0.0000 -0.0072
vn 0.7217 0.6915 -0.0310
vn 0.0000 0.4272 0.9042
vn 0.0000 0.6871 0.7265
vn -0.2911 0.2914 0.9112
vn -0.4661 0.4499 0.7618
vn -0.4893 -0.0000 0.8721
vn -0.6759 0.0000 0.7370
vn -0.2855 -0.2953 0.9117
vn -0.4588 -0.4557 0.7628
vn 0.0000 -0.4276 0.9040
vn 0.0000 -0.6865 0.7271
vn 0.2855 -0.2953 0.9117
vn 0.4588 -0.4557 0.7628
vn 0.4893 -0.0000 0.8721
vn 0.6759 0.0000 0.7370
vn 0.2911 0.2914 0.9112
vn 0.4661 0.4500 0.7618
vn 0.0000 -0.0000 1.0000
s 1
f 1//1 2//1 3//1 4//1
f 1//2 5//2 6//2 2//2
f 7//3 8//3 6//3 5//3
f 9//4 10//4 8//4 7//4
f 11//5 12//5 10//5 9//5
f 11//6 13//6 14//6 12//6
f 15//7 16//7 14//7 13//7
f 4//8 3//8 16//8 15//8
f 17//9 18//9 19//9 20//9
f 21//10 22//10 17//10 20//10
f 23//11 22//11 21//11 24//11
f 25//12 23//12 24//12 26//12
f 27//13 25//13 26//13 28//13
f 29//14 30//14 27//14 28//14
f 31//15 30//15 29//15 32//15
f 18//16 31//16 32//16 19//16
f 1//17 4//17 33//17
f 4//18 15//18 33//18
f 15//19 13//19 34//19 33//19
f 13//20 11//20 34//20
f 11//21 9//21 34//21
f 9//22 7//22 34//22
f 7//23 5//23 33//23 34//23
f 5//24 1//24 33//24
f 35//25 36//25 3//25 2//25
f 37//26 35//26 2//26 6//26
f 38//27 37//27 6//27 8//27
f 10//28 39//28 38//28 8//28
f 40//29 39//29 10//29 12//29
f 41//30 40//30 12//30 14//30
f 42//31 41//31 14//31 16//31
f 3//32 36//32 42//32 16//32
f 35//33 43//33 44//33 36//33
f 37//34 45//34 43//34 35//34
f 38//35 46//35 45//35 37//35
f 39//36 47//36 46//36 38//36
f 40//37 48//37 47//37 39//37
f 41//38 49//38 48//38 40//38
f 42//39 50//39 49//39 41//39
f 36//40 44//40 50//40 42//40
f 51//41 52//41 18//41 17//41
f 44//42 43//42 20//42 19//42
f 22//43 53//43 51//43 17//43
f 20//44 43//44 45//44 21//44
f 54//45 53//45 22//45 23//45
f 45//46 46//46 24//46 21//46
f 55//47 54//47 23//47 25//47
f 46//48 47//48 26//48 24//48
f 56//49 55//49 25//49 27//49
f 47//50 48//50 28//50 26//50
f 30//51 57//51 56//51 27//51
f 28//52 48//52 49//52 29//52
f 58//53 57//53 30//53 31//53
f 49//54 50//54 32//54 29//54
f 52//55 58//55 31//55 18//55
f 50//56 44//56 19//56 32//56
f 55//57 56//57 59//57
f 56//57 57//57 59//57
f 57//57 58//57 59//57
f 58//57 52//57 59//57
f 52//57 51//57 59//57
f 51//57 53//57 59//57
f 53//57 54//57 59//57
f 54//57 55//57 59//57
