# Blender v3.2.1 OBJ File: ''
# www.blender.org
o diamond_princess
v 0.000000 0.075784 -0.362062
v 0.419974 0.419975 0.067760
v 0.000000 0.000000 -0.421145
v 0.075784 0.000000 -0.362062
v 0.419975 -0.419974 0.067760
v 0.000000 -0.075784 -0.362062
v -0.419974 -0.419975 0.067760
v -0.075784 0.000000 -0.362062
v -0.419975 0.419974 0.067760
v -0.420000 0.419993 0.077606
v 0.420000 0.419993 0.077606
v 0.419993 -0.420000 0.077606
v -0.420000 -0.419993 0.077606
v 0.000007 0.335496 -0.082200
v 0.335496 -0.000007 -0.082200
v -0.000007 -0.335496 -0.082200
v -0.335496 0.000007 -0.082200
v 0.000002 0.251853 -0.194175
v 0.251853 -0.000002 -0.194175
v -0.000002 -0.251853 -0.194175
v -0.251853 0.000002 -0.194175
v 0.000001 0.173177 -0.276060
v 0.173177 -0.000001 -0.276060
v -0.000001 -0.173177 -0.276060
v -0.173177 0.000001 -0.276060
v -0.000008 0.303736 0.221142
v -0.303736 -0.000008 0.220917
v 0.000008 -0.303736 0.221142
v 0.303736 0.000008 0.220917
v -0.276097 0.310598 0.196185
v -0.310597 0.276097 0.196186
v -0.310597 -0.276099 0.196186
v -0.276095 -0.310597 0.196186
v 0.276100 -0.310597 0.196186
v 0.310598 -0.276095 0.196186
v 0.310598 0.276100 0.196185
v 0.276095 0.310598 0.196186
v -0.268060 0.268054 0.221143
v -0.268058 -0.268057 0.221142
v 0.268057 -0.268058 0.221142
v 0.268059 0.268057 0.221142
vn 0.2902 0.5884 -0.7547
vn 0.5884 0.2902 -0.7547
vn 0.5884 -0.2902 -0.7547
vn 0.2902 -0.5884 -0.7547
vn -0.2902 -0.5884 -0.7547
vn -0.5884 -0.2902 -0.7547
vn -0.5884 0.2902 -0.7547
vn -0.2902 0.5884 -0.7547
vn -0.0000 1.0000 -0.0019
vn 0.0000 1.0000 -0.0018
vn 1.0000 -0.0000 -0.0026
vn 1.0000 0.0000 -0.0018
vn -0.0000 -1.0000 -0.0026
vn 0.0000 -1.0000 -0.0018
vn -1.0000 -0.0000 -0.0026
vn -1.0000 0.0000 -0.0025
vn -0.0000 0.8713 -0.4908
vn 0.8713 0.0000 -0.4908
vn 0.0000 -0.8713 -0.4908
vn -0.8713 -0.0000 -0.4908
vn 0.0525 0.8001 -0.5976
vn 0.8001 0.0525 -0.5976
vn 0.8001 -0.0525 -0.5976
vn 0.0525 -0.8001 -0.5976
vn -0.0525 -0.8001 -0.5976
vn -0.8001 -0.0525 -0.5976
vn -0.8001 0.0525 -0.5976
vn -0.0525 0.8001 -0.5976
vn 0.1420 0.7138 -0.6858
vn 0.7138 0.1420 -0.6858
vn 0.7138 -0.1420 -0.6858
vn 0.1420 -0.7138 -0.6858
vn -0.1420 -0.7138 -0.6858
vn -0.7138 -0.1420 -0.6858
vn -0.7138 0.1420 -0.6858
vn -0.1420 0.7138 -0.6858
vn 0.2192 0.6458 -0.7313
vn 0.6458 0.2192 -0.7313
vn 0.6458 -0.2192 -0.7313
vn 0.2192 -0.6458 -0.7313
vn -0.2192 -0.6458 -0.7313
vn -0.6458 -0.2192 -0.7313
vn -0.6458 0.2192 -0.7313
vn -0.2192 0.6458 -0.7313
vn 0.0000 0.7771 0.6294
vn -0.7766 -0.0000 0.6300
vn -0.0000 -0.7771 0.6294
vn 0.7766 -0.0000 0.6300
vn -0.0464 0.7055 0.7072
vn -0.7059 0.0458 0.7068
vn -0.7059 -0.0458 0.7068
vn -0.0464 -0.7055 0.7072
vn 0.0464 -0.7055 0.7072
vn 0.7059 -0.0458 0.7068
vn 0.7059 0.0458 0.7068
vn 0.0464 0.7055 0.7072
vn -0.3668 0.4182 0.8310
vn -0.4182 0.3668 0.8310
vn -0.4182 -0.3669 0.8310
vn -0.3668 -0.4182 0.8310
vn 0.3669 -0.4181 0.8310
vn 0.4182 -0.3669 0.8310
vn 0.4182 0.3669 0.8310
vn 0.3668 0.4182 0.8310
vn -0.0660 0.4956 0.8660
vn -0.4958 0.0652 0.8660
vn -0.4957 -0.0653 0.8660
vn -0.0660 -0.4956 0.8660
vn 0.0660 -0.4956 0.8660
vn 0.4957 -0.0653 0.8660
vn 0.4957 0.0653 0.8660
vn 0.0660 0.4956 0.8660
vn 0.0000 0.0000 1.0000
vn 0.0000 -0.0008 1.0000
vn 0.0007 0.0007 1.0000
vn -0.0063 -0.0000 1.0000
s off
f 1//1 2//1 3//1
f 2//2 4//2 3//2
f 4//3 5//3 3//3
f 5//4 6//4 3//4
f 7//5 3//5 6//5
f 8//6 3//6 7//6
f 8//7 9//7 3//7
f 9//8 1//8 3//8
f 10//9 2//9 9//9
f 10//10 11//10 2//10
f 12//11 2//11 11//11
f 12//12 5//12 2//12
f 13//13 5//13 12//13
f 13//14 7//14 5//14
f 13//15 9//15 7//15
f 13//16 10//16 9//16
f 9//17 2//17 14//17
f 2//18 5//18 15//18
f 7//19 16//19 5//19
f 7//20 9//20 17//20
f 2//21 18//21 14//21
f 2//22 15//22 19//22
f 5//23 19//23 15//23
f 5//24 16//24 20//24
f 7//25 20//25 16//25
f 7//26 17//26 21//26
f 9//27 21//27 17//27
f 9//28 14//28 18//28
f 22//29 18//29 2//29
f 2//30 19//30 23//30
f 23//31 19//31 5//31
f 5//32 20//32 24//32
f 7//33 24//33 20//33
f 25//34 7//34 21//34
f 25//35 21//35 9//35
f 9//36 18//36 22//36
f 22//37 2//37 1//37
f 2//38 23//38 4//38
f 4//39 23//39 5//39
f 5//40 24//40 6//40
f 7//41 6//41 24//41
f 7//42 25//42 8//42
f 8//43 25//43 9//43
f 9//44 22//44 1//44
f 26//45 11//45 10//45
f 27//46 10//46 13//46
f 28//47 13//47 12//47
f 29//48 12//48 11//48
f 26//49 10//49 30//49
f 27//50 31//50 10//50
f 27//51 13//51 32//51
f 28//52 33//52 13//52
f 28//53 12//53 34//53
f 29//54 35//54 12//54
f 36//55 29//55 11//55
f 26//56 37//56 11//56
f 38//57 30//57 10//57
f 31//58 38//58 10//58
f 39//59 32//59 13//59
f 39//60 13//60 33//60
f 40//61 34//61 12//61
f 40//62 12//62 35//62
f 41//63 36//63 11//63
f 41//64 11//64 37//64
f 38//65 26//65 30//65
f 38//66 31//66 27//66
f 27//67 32//67 39//67
f 28//68 39//68 33//68
f 40//69 28//69 34//69
f 29//70 40//70 35//70
f 41//71 29//71 36//71
f 26//72 41//72 37//72
f 38//73 41//73 26//73
f 38//74 29//74 41//74
f 38//75 40//75 29//75
f 38//73 28//73 40//73
f 38//73 39//73 28//73
f 38//76 27//76 39//76
