# Blender v3.2.1 OBJ File: ''
# www.blender.org
o key
v -0.042250 -0.011883 0.001292
v -0.042250 -0.002784 0.001292
v -0.042250 -0.002784 -0.001292
v -0.042250 -0.011883 -0.001292
v -0.030325 -0.011883 -0.001292
v -0.030325 -0.002784 -0.001292
v -0.027927 -0.002784 -0.001292
v -0.027927 -0.011883 -0.001292
v -0.027927 -0.002784 0.001292
v -0.027927 -0.011883 0.001292
v -0.039853 -0.011883 0.001292
v -0.039853 -0.002784 0.001292
v -0.030325 -0.018275 -0.001292
v -0.027927 -0.018275 -0.001292
v -0.027927 -0.018275 0.001292
v -0.030325 -0.018275 0.001292
v -0.030325 -0.011883 0.001292
v -0.030325 -0.002784 0.001292
v -0.032723 -0.002784 0.001292
v -0.032723 -0.011883 0.001292
v -0.037455 -0.002784 0.001292
v -0.037455 -0.011883 0.001292
v -0.039853 -0.011883 -0.001292
v -0.039853 -0.002784 -0.001292
v -0.037455 -0.002784 -0.001292
v -0.037455 -0.011883 -0.001292
v -0.032723 -0.002784 -0.001292
v -0.032723 -0.011883 -0.001292
v -0.039853 -0.018275 0.001292
v -0.039853 -0.014651 0.001292
v -0.042250 -0.014651 0.001292
v -0.042250 -0.018275 0.001292
v -0.027927 -0.014651 -0.001292
v -0.027927 -0.014651 0.001292
v -0.030325 -0.014651 -0.001292
v -0.042250 -0.014651 -0.001292
v -0.042250 -0.018275 -0.001292
v -0.039853 -0.014651 -0.001292
v -0.032723 -0.014651 -0.001292
v -0.030325 -0.014651 0.001292
v -0.032723 -0.014651 0.001292
v -0.037455 -0.014651 0.001292
v -0.037455 -0.014651 -0.001292
v -0.039853 -0.018275 -0.001292
v 0.026028 -0.001947 -0.001947
v 0.026028 -0.001054 -0.002545
v 0.026028 0.000000 -0.002754
v 0.026028 0.000000 0.000000
v -0.012298 -0.003458 -0.001432
v 0.025058 -0.003458 -0.001432
v 0.025058 -0.003743 -0.000000
v -0.012298 -0.003743 -0.000000
v 0.026028 -0.002545 0.001054
v 0.026028 -0.002754 -0.000000
v 0.026028 -0.001947 0.001947
v -0.012298 -0.003458 0.001432
v 0.025058 -0.003458 0.001432
v 0.025058 -0.002647 0.002647
v -0.012298 -0.002647 0.002647
v 0.026028 -0.001054 0.002545
v 0.026028 -0.000000 0.002754
v -0.012298 -0.001432 0.003458
v 0.025058 -0.001432 0.003458
v 0.025058 -0.000000 0.003743
v -0.012298 -0.000000 0.003743
v 0.026028 0.001054 0.002545
v 0.026028 0.001947 0.001947
v -0.012298 0.001432 0.003458
v 0.025058 0.001432 0.003458
v 0.025058 0.002647 0.002647
v -0.012298 0.002647 0.002647
v 0.026028 0.002545 0.001054
v 0.026028 0.002754 0.000000
v -0.012298 0.003458 0.001432
v 0.025058 0.003458 0.001432
v 0.025058 0.003743 0.000000
v -0.012298 0.003743 0.000000
v 0.026028 0.002545 -0.001054
v 0.026028 0.001947 -0.001947
v -0.012298 0.003458 -0.001432
v 0.025058 0.003458 -0.001432
v 0.025058 0.002647 -0.002647
v -0.012298 0.002647 -0.002647
v 0.025058 0.001432 -0.003458
v -0.012298 0.001432 -0.003458
v -0.012298 -0.001432 -0.003458
v 0.025058 -0.001432 -0.003458
v 0.025058 -0.002647 -0.002647
v -0.012298 -0.002647 -0.002647
v 0.026028 -0.002545 -0.001054
v 0.026028 0.001054 -0.002545
v -0.045032 0.000000 -0.003743
v -0.045032 -0.001432 -0.003458
v -0.045989 -0.001358 -0.003279
v -0.045989 0.000000 -0.003549
v -0.046800 -0.001147 -0.002768
v -0.046800 0.000000 -0.002996
v -0.047342 -0.000830 -0.002004
v -0.047342 0.000000 -0.002169
v -0.047532 -0.000457 -0.001103
v -0.047532 0.000000 -0.001194
v -0.045032 -0.002647 -0.002647
v -0.045989 -0.002510 -0.002510
v -0.046800 -0.002119 -0.002119
v -0.047342 -0.001534 -0.001534
v -0.047532 -0.000844 -0.000844
v -0.045032 -0.003458 -0.001432
v -0.045989 -0.003279 -0.001358
v -0.046800 -0.002768 -0.001147
v -0.047342 -0.002004 -0.000830
v -0.047532 -0.001103 -0.000457
v -0.045032 -0.003743 -0.000000
v -0.045989 -0.003549 -0.000000
v -0.046800 -0.002996 -0.000000
v -0.047342 -0.002169 -0.000000
v -0.047532 -0.001194 -0.000000
v -0.045032 -0.003458 0.001432
v -0.045989 -0.003279 0.001358
v -0.046800 -0.002768 0.001147
v -0.047342 -0.002004 0.000830
v -0.047532 -0.001103 0.000457
v -0.045032 -0.002647 0.002647
v -0.045989 -0.002510 0.002510
v -0.046800 -0.002119 0.002119
v -0.047342 -0.001534 0.001534
v -0.047532 -0.000844 0.000844
v -0.045032 -0.001432 0.003458
v -0.045989 -0.001358 0.003279
v -0.046800 -0.001147 0.002768
v -0.047342 -0.000830 0.002004
v -0.047532 -0.000457 0.001103
v -0.045032 -0.000000 0.003743
v -0.045989 -0.000000 0.003549
v -0.046800 -0.000000 0.002996
v -0.047342 -0.000000 0.002169
v -0.047532 -0.000000 0.001194
v -0.045032 0.001432 0.003458
v -0.045989 0.001358 0.003279
v -0.046800 0.001147 0.002768
v -0.047342 0.000830 0.002004
v -0.047532 0.000457 0.001103
v -0.045032 0.002647 0.002647
v -0.045989 0.002510 0.002510
v -0.046800 0.002119 0.002119
v -0.047342 0.001534 0.001534
v -0.047532 0.000844 0.000844
v -0.045032 0.003458 0.001432
v -0.045989 0.003279 0.001358
v -0.046800 0.002768 0.001147
v -0.047342 0.002004 0.000830
v -0.047532 0.001103 0.000457
v -0.045032 0.003743 0.000000
v -0.045989 0.003549 0.000000
v -0.046800 0.002996 0.000000
v -0.047342 0.002169 0.000000
v -0.047532 0.001194 0.000000
v -0.045032 0.003458 -0.001432
v -0.045989 0.003279 -0.001358
v -0.046800 0.002768 -0.001147
v -0.047342 0.002004 -0.000830
v -0.047532 0.001103 -0.000457
v -0.045032 0.002647 -0.002647
v -0.045989 0.002510 -0.002510
v -0.046800 0.002119 -0.002119
v -0.047342 0.001534 -0.001534
v -0.047532 0.000844 -0.000844
v -0.045032 0.001432 -0.003458
v -0.045989 0.001358 -0.003279
v -0.046800 0.001147 -0.002768
v -0.047342 0.000830 -0.002004
v -0.047532 0.000457 -0.001103
v -0.047532 -0.000000 0.000844
v -0.022378 0.000000 -0.003743
v -0.022378 -0.001432 -0.003458
v -0.022378 -0.002647 -0.002647
v -0.022378 0.002647 -0.002647
v -0.022378 0.001432 -0.003458
v -0.022378 0.003458 -0.001432
v -0.022378 0.003743 0.000000
v -0.022378 0.003458 0.001432
v -0.022378 0.002647 0.002647
v -0.022378 0.001432 0.003458
v -0.022378 -0.000000 0.003743
v -0.022378 -0.001432 0.003458
v -0.022378 -0.002647 0.002647
v -0.022378 -0.003458 0.001432
v -0.022378 -0.003743 -0.000000
v -0.022378 -0.003458 -0.001432
v -0.021641 -0.004620 -0.001914
v -0.021641 -0.005001 -0.000000
v -0.013033 0.003536 0.003536
v -0.013033 0.001914 0.004620
v -0.017428 -0.002647 -0.002647
v -0.017428 -0.003458 -0.001432
v -0.018166 -0.004620 -0.001914
v -0.018166 -0.003536 -0.003536
v -0.021641 -0.004620 0.001914
v -0.013033 0.004620 0.001914
v -0.017428 0.001432 -0.003458
v -0.017428 0.000000 -0.003743
v -0.018166 0.000000 -0.005001
v -0.018166 0.001914 -0.004620
v -0.021641 -0.003536 0.003536
v -0.013033 0.005001 0.000000
v -0.021641 -0.001914 0.004620
v -0.013033 0.004620 -0.001914
v -0.021641 -0.000000 0.005001
v -0.013033 0.003536 -0.003536
v -0.021641 0.001914 0.004620
v -0.013033 0.001914 -0.004620
v -0.021641 0.003536 0.003536
v -0.013033 -0.003536 -0.003536
v -0.013033 -0.001914 -0.004620
v -0.016322 -0.001432 -0.003458
v -0.016322 0.000000 -0.003743
v -0.015587 0.000000 -0.005001
v -0.015587 -0.001914 -0.004620
v -0.021641 0.004620 0.001914
v -0.012298 0.000000 -0.003743
v -0.013033 0.000000 -0.005001
v -0.016322 -0.002647 -0.002647
v -0.015587 -0.003536 -0.003536
v -0.021641 0.005001 0.000000
v -0.016322 0.001432 -0.003458
v -0.016322 0.002647 -0.002647
v -0.015587 0.003536 -0.003536
v -0.015587 0.001914 -0.004620
v -0.021641 0.004620 -0.001914
v -0.016322 0.003458 -0.001432
v -0.015587 0.004620 -0.001914
v -0.021641 0.003536 -0.003536
v -0.016322 0.003743 0.000000
v -0.015587 0.005001 0.000000
v -0.021641 0.001914 -0.004620
v -0.016322 0.003458 0.001432
v -0.015587 0.004620 0.001914
v -0.021641 -0.001914 -0.004620
v -0.021641 -0.003536 -0.003536
v -0.017428 -0.001432 -0.003458
v -0.018166 -0.001914 -0.004620
v -0.016322 0.002647 0.002647
v -0.015587 0.003536 0.003536
v -0.021641 0.000000 -0.005001
v -0.016322 -0.003458 -0.001432
v -0.016322 -0.003743 -0.000000
v -0.017428 -0.003743 -0.000000
v -0.016322 -0.003458 0.001432
v -0.017428 -0.003458 0.001432
v -0.016322 -0.002647 0.002647
v -0.017428 -0.002647 0.002647
v -0.016322 -0.001432 0.003458
v -0.017428 -0.001432 0.003458
v -0.016322 -0.000000 0.003743
v -0.017428 -0.000000 0.003743
v -0.016322 0.001432 0.003458
v -0.017428 0.001432 0.003458
v -0.017428 0.002647 0.002647
v -0.017428 0.003458 0.001432
v -0.017428 0.003743 0.000000
v -0.017428 0.003458 -0.001432
v -0.017428 0.002647 -0.002647
v -0.015587 0.001914 0.004620
v -0.015587 -0.000000 0.005001
v -0.013033 -0.000000 0.005001
v -0.015587 -0.001914 0.004620
v -0.013033 -0.001914 0.004620
v -0.015587 -0.003536 0.003536
v -0.013033 -0.003536 0.003536
v -0.015587 -0.004620 0.001914
v -0.013033 -0.004620 0.001914
v -0.015587 -0.005001 -0.000000
v -0.013033 -0.005001 -0.000000
v -0.015587 -0.004620 -0.001914
v -0.013033 -0.004620 -0.001914
v -0.018166 -0.005001 -0.000000
v -0.018166 -0.004620 0.001914
v -0.018166 -0.003536 0.003536
v -0.018166 -0.001914 0.004620
v -0.018166 -0.000000 0.005001
v -0.018166 0.001914 0.004620
v -0.018166 0.003536 0.003536
v -0.018166 0.004620 0.001914
v -0.018166 0.005001 0.000000
v -0.018166 0.004620 -0.001914
v -0.018166 0.003536 -0.003536
v -0.047532 0.000000 -0.000457
v -0.047532 0.000000 0.000000
v -0.047532 -0.000000 0.000457
v -0.047532 0.000000 -0.000844
v 0.025058 0.000000 -0.003743
v 0.040068 0.016015 -0.001919
v 0.040068 0.016015 0.001919
v 0.044891 0.014796 0.001919
v 0.044891 0.014796 -0.001919
v 0.048980 0.011324 0.001919
v 0.048980 0.011324 -0.001919
v 0.051712 0.006129 0.001919
v 0.051712 0.006129 -0.001919
v 0.052672 -0.000000 0.001919
v 0.052672 0.000000 -0.001919
v 0.051712 -0.006129 0.001919
v 0.051712 -0.006129 -0.001919
v 0.048980 -0.011324 0.001919
v 0.048980 -0.011324 -0.001919
v 0.044891 -0.014796 0.001919
v 0.044891 -0.014796 -0.001919
v 0.040068 -0.016015 0.001919
v 0.040068 -0.016015 -0.001919
v 0.035245 -0.014796 0.001919
v 0.035245 -0.014796 -0.001919
v 0.031156 -0.011324 0.001919
v 0.031156 -0.011324 -0.001919
v 0.028424 -0.006129 0.001919
v 0.028424 -0.006129 -0.001919
v 0.022727 0.000000 -0.001919
v 0.023012 -0.004276 -0.001919
v 0.021598 -0.002744 -0.001919
v 0.021132 0.000000 -0.001919
v 0.022727 -0.000000 0.001919
v 0.023012 0.004276 0.001919
v 0.021598 0.002744 0.001919
v 0.021132 -0.000000 0.001919
v 0.028424 0.006129 -0.001919
v 0.028424 0.006129 0.001919
v 0.031156 0.011324 0.001919
v 0.031156 0.011324 -0.001919
v 0.037031 0.009317 0.001919
v 0.034456 0.007131 0.001919
v 0.034456 0.007131 -0.001919
v 0.037031 0.009317 -0.001919
v 0.035245 0.014796 0.001919
v 0.035245 0.014796 -0.001919
v 0.040068 0.010085 0.001919
v 0.040068 0.010085 -0.001919
v 0.043105 0.009317 -0.001919
v 0.043105 0.009317 0.001919
v 0.045680 0.007131 -0.001919
v 0.045680 0.007131 0.001919
v 0.047401 0.003859 -0.001919
v 0.047401 0.003859 0.001919
v 0.048005 0.000000 -0.001919
v 0.048005 -0.000000 0.001919
v 0.047401 -0.003859 -0.001919
v 0.047401 -0.003859 0.001919
v 0.045680 -0.007131 -0.001919
v 0.045680 -0.007131 0.001919
v 0.043105 -0.009317 -0.001919
v 0.043105 -0.009317 0.001919
v 0.040068 -0.010085 -0.001919
v 0.040068 -0.010085 0.001919
v 0.037031 -0.009317 -0.001919
v 0.037031 -0.009317 0.001919
v 0.034456 -0.007131 -0.001919
v 0.034456 -0.007131 0.001919
v 0.032736 -0.003859 -0.001919
v 0.032736 -0.003859 0.001919
v 0.032131 0.000000 -0.001919
v 0.028424 0.000000 -0.001919
v 0.032131 -0.000000 0.001919
v 0.028424 -0.000000 0.001919
v 0.032736 0.003859 -0.001919
v 0.032736 0.003859 0.001919
v 0.023012 0.004276 -0.001919
v 0.021598 0.002744 -0.001919
v 0.023012 -0.004276 0.001919
v 0.021598 -0.002744 0.001919
v 0.027436 -0.004971 0.001919
v 0.027436 -0.004971 -0.001919
v 0.027436 -0.000000 0.001919
v 0.027436 0.000000 -0.001919
v 0.027436 0.004971 -0.001919
v 0.027436 0.004971 0.001919
v 0.026215 -0.004683 -0.001919
v 0.026215 -0.004683 0.001919
v 0.024613 -0.004874 0.001919
v 0.024613 -0.004874 -0.001919
v 0.026215 -0.000000 0.001919
v 0.024613 -0.000000 0.001919
v 0.026215 0.004683 -0.001919
v 0.026215 0.000000 -0.001919
v 0.024613 0.000000 -0.001919
v 0.024613 0.004874 -0.001919
v 0.026215 0.004683 0.001919
v 0.024613 0.004874 0.001919
vn -1.0000 0.0000 0.0000
vn 0.0000 0.0000 -1.0000
vn 1.0000 0.0000 0.0000
vn 0.0000 -0.0000 1.0000
vn 0.0000 -1.0000 0.0000
vn 0.0000 -0.9238 -0.3829
vn 0.0000 -0.9238 0.3829
vn 0.0000 -0.7071 0.7071
vn 0.0000 -0.3825 0.9240
vn 0.0000 0.3825 0.9240
vn 0.0000 0.7071 0.7071
vn 0.0000 0.9238 0.3829
vn 0.0000 1.0000 0.0000
vn 0.0000 0.9238 -0.3829
vn 0.0000 0.7071 -0.7071
vn 0.0000 0.3825 -0.9240
vn 0.0000 -0.3825 -0.9240
vn 0.0000 -0.7071 -0.7071
vn -0.0986 0.0000 -0.9951
vn -0.0988 -0.3809 -0.9193
vn -0.3800 -0.3542 -0.8545
vn -0.3801 0.0000 -0.9249
vn -0.7016 -0.2726 -0.6584
vn -0.7016 -0.0000 -0.7126
vn -0.9178 -0.1518 -0.3668
vn -0.9178 -0.0000 -0.3970
vn -0.9942 -0.0413 -0.0997
vn -0.9942 0.0000 -0.1080
vn -0.0985 -0.7037 -0.7037
vn -0.3800 -0.6541 -0.6541
vn -0.7016 -0.5039 -0.5039
vn -0.9178 -0.2807 -0.2807
vn -0.9941 -0.0765 -0.0765
vn -0.0985 -0.9195 -0.3806
vn -0.3800 -0.8547 -0.3538
vn -0.7016 -0.6584 -0.2726
vn -0.9178 -0.3668 -0.1518
vn -0.9942 -0.0997 -0.0413
vn -0.0986 -0.9951 -0.0000
vn -0.3801 -0.9249 -0.0000
vn -0.7016 -0.7126 -0.0000
vn -0.9178 -0.3970 -0.0000
vn -0.9942 -0.1080 -0.0000
vn -0.0985 -0.9195 0.3806
vn -0.3800 -0.8547 0.3538
vn -0.7016 -0.6584 0.2726
vn -0.9178 -0.3668 0.1518
vn -0.9942 -0.0997 0.0413
vn -0.0985 -0.7037 0.7037
vn -0.3800 -0.6541 0.6541
vn -0.7016 -0.5039 0.5039
vn -0.9178 -0.2807 0.2807
vn -0.9941 -0.0765 0.0765
vn -0.0988 -0.3809 0.9193
vn -0.3800 -0.3542 0.8545
vn -0.7016 -0.2726 0.6584
vn -0.9178 -0.1518 0.3668
vn -0.9942 -0.0413 0.0997
vn -0.0986 -0.0000 0.9951
vn -0.3801 -0.0000 0.9249
vn -0.7016 0.0000 0.7126
vn -0.9178 0.0000 0.3970
vn -0.9942 -0.0000 0.1080
vn -0.0988 0.3809 0.9193
vn -0.3800 0.3542 0.8545
vn -0.7016 0.2726 0.6584
vn -0.9178 0.1518 0.3668
vn -0.9942 0.0413 0.0997
vn -0.0985 0.7037 0.7037
vn -0.3800 0.6541 0.6541
vn -0.7016 0.5039 0.5039
vn -0.9178 0.2807 0.2807
vn -0.9941 0.0765 0.0765
vn -0.0985 0.9195 0.3806
vn -0.3800 0.8547 0.3538
vn -0.7016 0.6584 0.2726
vn -0.9178 0.3668 0.1518
vn -0.9942 0.0997 0.0413
vn -0.0986 0.9951 0.0000
vn -0.3801 0.9249 0.0000
vn -0.7016 0.7126 0.0000
vn -0.9178 0.3970 0.0000
vn -0.9942 0.1080 0.0000
vn -0.0985 0.9195 -0.3806
vn -0.3800 0.8547 -0.3538
vn -0.7016 0.6584 -0.2726
vn -0.9178 0.3668 -0.1518
vn -0.9942 0.0997 -0.0413
vn -0.0985 0.7037 -0.7037
vn -0.3800 0.6541 -0.6541
vn -0.7016 0.5039 -0.5039
vn -0.9178 0.2807 -0.2807
vn -0.9941 0.0765 -0.0765
vn -0.0988 0.3809 -0.9193
vn -0.3800 0.3542 -0.8545
vn -0.7016 0.2726 -0.6584
vn -0.9178 0.1518 -0.3668
vn -0.9942 0.0413 -0.0997
vn 0.0000 0.9240 -0.3825
vn 0.0000 0.9240 0.3825
vn 0.0000 -0.9240 0.3825
vn 0.0000 -0.9240 -0.3825
vn -0.8626 -0.5059 -0.0000
vn -0.8625 -0.4675 -0.1937
vn -0.8628 -0.5055 -0.0000
vn 0.8632 0.1931 0.4664
vn 0.8634 0.3568 0.3568
vn 0.8631 0.3571 0.3571
vn 0.8634 0.1931 0.4661
vn 0.8625 -0.3579 -0.3579
vn 0.8625 -0.4676 -0.1936
vn 0.8625 -0.4675 -0.1937
vn -0.8625 -0.4675 0.1937
vn 0.8634 0.4661 0.1930
vn 0.8634 0.4661 0.1931
vn 0.8625 0.1936 -0.4676
vn 0.8625 0.0000 -0.5060
vn 0.8625 0.1937 -0.4675
vn -0.8628 -0.3575 0.3575
vn -0.8625 -0.3578 0.3578
vn 0.8634 0.5045 0.0000
vn -0.8625 -0.1937 0.4675
vn -0.8624 -0.1938 0.4676
vn 0.8634 0.4661 -0.1930
vn 0.8634 0.4661 -0.1931
vn -0.8626 -0.0000 0.5058
vn 0.8632 0.3570 -0.3570
vn 0.8631 0.3571 -0.3571
vn -0.8625 0.1937 0.4675
vn 0.8632 0.1931 -0.4664
vn 0.8634 0.1931 -0.4661
vn -0.8628 0.3575 0.3575
vn -0.8625 0.3578 0.3578
vn 0.8632 -0.1931 -0.4664
vn 0.8634 -0.3568 -0.3568
vn 0.8631 -0.3571 -0.3571
vn 0.8634 -0.1931 -0.4661
vn -0.8631 -0.1932 -0.4666
vn -0.8634 0.0000 -0.5045
vn -0.8632 -0.0000 -0.5048
vn -0.8634 -0.1931 -0.4661
vn -0.8625 0.4675 0.1937
vn 0.8634 0.0000 -0.5045
vn 0.8632 0.0000 -0.5048
vn -0.8634 -0.3568 -0.3568
vn -0.8631 -0.3571 -0.3571
vn -0.8626 0.5059 0.0000
vn -0.8628 0.5055 0.0000
vn -0.8634 0.1930 -0.4661
vn -0.8631 0.3571 -0.3571
vn -0.8634 0.1931 -0.4661
vn -0.8625 0.4675 -0.1937
vn -0.8634 0.4661 -0.1930
vn -0.8634 0.4661 -0.1931
vn -0.8628 0.3575 -0.3575
vn -0.8625 0.3578 -0.3578
vn -0.8634 0.5045 0.0000
vn -0.8625 0.1937 -0.4675
vn -0.8624 0.1938 -0.4676
vn -0.8634 0.4661 0.1930
vn -0.8634 0.4661 0.1931
vn -0.8628 -0.3575 -0.3575
vn -0.8625 -0.1937 -0.4675
vn -0.8625 -0.3578 -0.3578
vn 0.8625 -0.1936 -0.4676
vn 0.8625 -0.1937 -0.4675
vn -0.8634 0.3568 0.3568
vn -0.8631 0.3571 0.3571
vn -0.8626 0.0000 -0.5058
vn 0.0000 -0.9240 -0.3824
vn -0.0000 -0.9240 0.3824
vn 0.0000 0.9240 0.3824
vn -0.0000 0.9240 -0.3824
vn 0.8625 -0.5060 -0.0000
vn 0.8634 -0.0000 0.5045
vn 0.8632 -0.0000 0.5048
vn 0.8625 -0.4676 0.1936
vn 0.8625 -0.4675 0.1937
vn 0.8632 -0.1931 0.4664
vn 0.8634 -0.1931 0.4661
vn 0.8625 -0.3579 0.3579
vn 0.8632 -0.3570 0.3570
vn 0.8631 -0.3571 0.3571
vn 0.8625 -0.1936 0.4676
vn 0.8625 -0.1937 0.4675
vn 0.8634 -0.4661 0.1930
vn 0.8634 -0.4661 0.1931
vn 0.8625 -0.0000 0.5060
vn 0.8634 -0.5045 -0.0000
vn -0.8634 -0.4661 -0.1930
vn -0.8634 -0.4661 -0.1931
vn 0.8625 0.1936 0.4676
vn 0.8625 0.1937 0.4675
vn 0.8634 -0.4661 -0.1930
vn 0.8634 -0.4661 -0.1931
vn -0.8634 -0.5045 -0.0000
vn 0.8625 0.3579 0.3579
vn -0.8634 -0.4661 0.1930
vn -0.8634 -0.4661 0.1931
vn 0.8625 0.4676 0.1936
vn 0.8625 0.4675 0.1937
vn -0.8631 -0.3571 0.3571
vn 0.8625 0.5060 0.0000
vn -0.8634 -0.1930 0.4661
vn -0.8634 -0.1931 0.4661
vn 0.8625 0.4676 -0.1936
vn 0.8625 0.4675 -0.1937
vn -0.8634 0.0000 0.5045
vn -0.8632 0.0000 0.5048
vn 0.8625 0.3579 -0.3579
vn -0.8631 0.1932 0.4666
vn -0.8634 0.1931 0.4661
vn 0.7139 -0.2680 -0.6470
vn 0.7138 -0.0000 -0.7004
vn 0.7140 -0.0000 -0.7001
vn 0.7139 -0.4951 -0.4951
vn 0.7139 -0.6470 -0.2680
vn 0.7138 -0.7004 -0.0000
vn 0.7139 -0.6470 0.2680
vn 0.7139 -0.4951 0.4951
vn 0.7139 -0.2680 0.6470
vn 0.7138 0.0000 0.7004
vn 0.7140 0.0000 0.7001
vn 0.7139 0.2680 0.6470
vn 0.7139 0.4951 0.4951
vn 0.7139 0.6470 0.2680
vn 0.7138 0.7004 0.0000
vn 0.7139 0.6470 -0.2680
vn 0.7139 0.4951 -0.4951
vn 0.7139 0.2680 -0.6470
vn 0.4580 0.8889 0.0000
vn 0.7804 0.6253 0.0000
vn 0.9493 0.3143 0.0000
vn 0.9493 -0.3143 -0.0000
vn 0.7804 -0.6253 0.0000
vn 0.4580 -0.8889 0.0000
vn -0.4580 -0.8889 0.0000
vn -0.7804 -0.6253 0.0000
vn -0.8280 -0.5607 -0.0000
vn -0.8280 0.5607 0.0000
vn -0.7804 0.6253 0.0000
vn 0.7804 -0.6252 -0.0000
vn -0.4580 0.8889 0.0000
vn 0.7804 0.6252 0.0000
vn -0.9493 0.3143 0.0000
vn -0.9493 -0.3143 -0.0000
vn -0.5576 0.8301 0.0000
vn -0.7345 0.6786 0.0000
vn -0.5576 -0.8301 -0.0000
vn -0.7345 -0.6786 -0.0000
vn -0.7607 -0.6491 -0.0000
vn -0.7607 0.6491 0.0000
vn -0.0565 -0.9984 -0.0000
vn -0.1191 -0.9929 -0.0000
vn -0.0565 0.9984 0.0000
vn -0.1191 0.9929 0.0000
vn -0.2296 0.9733 0.0000
vn -0.2296 -0.9733 -0.0000
s off
f 1//1 2//1 3//1 4//1
f 5//2 6//2 7//2 8//2
f 8//3 7//3 9//3 10//3
f 11//4 12//4 2//4 1//4
f 13//5 14//5 15//5 16//5
f 17//4 18//4 19//4 20//4
f 20//4 19//4 21//4 22//4
f 23//2 24//2 25//2 26//2
f 26//2 25//2 27//2 28//2
f 29//4 30//4 31//4 32//4
f 14//3 33//3 34//3 15//3
f 13//2 35//2 33//2 14//2
f 32//1 31//1 36//1 37//1
f 26//5 28//5 20//5 22//5
f 31//4 30//4 11//4 1//4
f 34//3 33//3 8//3 10//3
f 38//2 36//2 4//2 23//2
f 35//2 39//2 28//2 5//2
f 40//4 34//4 10//4 17//4
f 39//1 41//1 20//1 28//1
f 36//1 31//1 1//1 4//1
f 30//4 42//4 22//4 11//4
f 42//3 43//3 26//3 22//3
f 43//2 38//2 23//2 26//2
f 37//2 36//2 38//2 44//2
f 4//2 3//2 24//2 23//2
f 37//5 44//5 29//5 32//5
f 22//4 21//4 12//4 11//4
f 41//4 40//4 17//4 20//4
f 33//2 35//2 5//2 8//2
f 15//4 34//4 40//4 16//4
f 10//4 9//4 18//4 17//4
f 28//2 27//2 6//2 5//2
f 43//5 42//5 30//5 38//5
f 29//3 44//3 38//3 30//3
f 41//5 39//5 35//5 40//5
f 13//1 16//1 40//1 35//1
s 1
f 45//3 46//3 47//3 48//3
f 49//6 50//6 51//5 52//5
f 53//3 54//3 48//3 55//3
f 56//7 57//7 58//8 59//8
f 60//3 55//3 48//3 61//3
f 62//9 63//9 64//4 65//4
f 66//3 61//3 48//3 67//3
f 68//10 69//10 70//11 71//11
f 72//3 67//3 48//3 73//3
f 74//12 75//12 76//13 77//13
f 78//3 73//3 48//3 79//3
f 80//14 81//14 82//15 83//15
f 83//15 82//15 84//16 85//16
f 86//17 87//17 88//18 89//18
f 90//3 45//3 48//3 54//3
f 91//3 79//3 48//3 47//3
f 92//19 93//20 94//21 95//22
f 95//22 94//21 96//23 97//24
f 97//24 96//23 98//25 99//26
f 99//26 98//25 100//27 101//28
f 93//20 102//29 103//30 94//21
f 94//21 103//30 104//31 96//23
f 96//23 104//31 105//32 98//25
f 98//25 105//32 106//33 100//27
f 102//29 107//34 108//35 103//30
f 103//30 108//35 109//36 104//31
f 104//31 109//36 110//37 105//32
f 105//32 110//37 111//38 106//33
f 107//34 112//39 113//40 108//35
f 108//35 113//40 114//41 109//36
f 109//36 114//41 115//42 110//37
f 110//37 115//42 116//43 111//38
f 112//39 117//44 118//45 113//40
f 113//40 118//45 119//46 114//41
f 114//41 119//46 120//47 115//42
f 115//42 120//47 121//48 116//43
f 117//44 122//49 123//50 118//45
f 118//45 123//50 124//51 119//46
f 119//46 124//51 125//52 120//47
f 120//47 125//52 126//53 121//48
f 122//49 127//54 128//55 123//50
f 123//50 128//55 129//56 124//51
f 124//51 129//56 130//57 125//52
f 125//52 130//57 131//58 126//53
f 127//54 132//59 133//60 128//55
f 128//55 133//60 134//61 129//56
f 129//56 134//61 135//62 130//57
f 130//57 135//62 136//63 131//58
f 132//59 137//64 138//65 133//60
f 133//60 138//65 139//66 134//61
f 134//61 139//66 140//67 135//62
f 135//62 140//67 141//68 136//63
f 137//64 142//69 143//70 138//65
f 138//65 143//70 144//71 139//66
f 139//66 144//71 145//72 140//67
f 140//67 145//72 146//73 141//68
f 142//69 147//74 148//75 143//70
f 143//70 148//75 149//76 144//71
f 144//71 149//76 150//77 145//72
f 145//72 150//77 151//78 146//73
f 147//74 152//79 153//80 148//75
f 148//75 153//80 154//81 149//76
f 149//76 154//81 155//82 150//77
f 150//77 155//82 156//83 151//78
f 152//79 157//84 158//85 153//80
f 153//80 158//85 159//86 154//81
f 154//81 159//86 160//87 155//82
f 155//82 160//87 161//88 156//83
f 157//84 162//89 163//90 158//85
f 158//85 163//90 164//91 159//86
f 159//86 164//91 165//92 160//87
f 160//87 165//92 166//93 161//88
f 162//89 167//94 168//95 163//90
f 163//90 168//95 169//96 164//91
f 164//91 169//96 170//97 165//92
f 165//92 170//97 171//98 166//93
f 167//94 92//19 95//22 168//95
f 168//95 95//22 97//24 169//96
f 169//96 97//24 99//26 170//97
f 170//97 99//26 101//28 171//98
f 172//1 126//53 131//58 136//63
f 92//19 173//2 174//17 93//20
f 93//20 174//17 175//18 102//29
f 162//89 176//15 177//16 167//94
f 157//84 178//99 176//15 162//89
f 152//79 179//13 178//99 157//84
f 147//74 180//100 179//13 152//79
f 142//69 181//11 180//100 147//74
f 137//64 182//10 181//11 142//69
f 132//59 183//4 182//10 137//64
f 127//54 184//9 183//4 132//59
f 122//49 185//8 184//9 127//54
f 117//44 186//101 185//8 122//49
f 112//39 187//5 186//101 117//44
f 107//34 188//102 187//5 112//39
f 102//29 175//18 188//102 107//34
f 167//94 177//16 173//2 92//19
f 187//103 188//104 189//104 190//105
f 68//106 71//107 191//108 192//109
f 193//110 194//111 195//112 196//110
f 186//113 187//103 190//105 197//113
f 71//107 74//114 198//115 191//108
f 199//116 200//117 201//117 202//118
f 185//119 186//113 197//113 203//120
f 74//114 77//121 204//121 198//115
f 184//122 185//119 203//120 205//123
f 77//121 80//124 206//125 204//121
f 183//126 184//122 205//123 207//126
f 80//124 83//127 208//128 206//125
f 182//129 183//126 207//126 209//129
f 83//127 85//130 210//131 208//128
f 181//132 182//129 209//129 211//133
f 86//134 89//135 212//136 213//137
f 214//138 215//139 216//140 217//141
f 180//142 181//132 211//133 218//142
f 219//143 86//134 213//137 220//144
f 221//145 214//138 217//141 222//146
f 179//147 180//142 218//142 223//148
f 224//149 225//150 226//150 227//151
f 178//152 179//147 223//148 228//152
f 225//150 229//153 230//154 226//150
f 176//155 178//152 228//152 231//156
f 229//153 232//157 233//157 230//154
f 177//158 176//155 231//156 234//159
f 232//157 235//160 236//161 233//157
f 175//162 174//163 237//163 238//164
f 200//117 239//165 240//166 201//117
f 235//160 241//167 242//168 236//161
f 174//163 173//169 243//169 237//163
f 199//16 224//16 215//2 200//2
f 193//18 221//18 244//102 194//102
f 194//102 244//102 245//5 246//5
f 246//5 245//5 247//101 248//101
f 248//101 247//101 249//8 250//8
f 250//8 249//8 251//9 252//9
f 252//9 251//9 253//4 254//4
f 254//4 253//4 255//10 256//10
f 256//10 255//10 241//11 257//11
f 257//11 241//11 235//100 258//100
f 258//100 235//100 232//13 259//13
f 259//13 232//13 229//99 260//99
f 260//99 229//99 225//15 261//15
f 261//15 225//15 224//16 199//16
f 239//17 214//17 221//18 193//18
f 200//2 215//2 214//17 239//17
f 216//2 220//2 213//17 217//17
f 217//17 213//17 212//18 222//18
f 226//15 208//15 210//16 227//16
f 230//99 206//99 208//15 226//15
f 233//13 204//13 206//99 230//99
f 236//100 198//100 204//13 233//13
f 242//11 191//11 198//100 236//100
f 262//10 192//10 191//11 242//11
f 263//4 264//4 192//10 262//10
f 265//9 266//9 264//4 263//4
f 267//8 268//8 266//9 265//9
f 269//101 270//101 268//8 267//8
f 271//5 272//5 270//101 269//101
f 273//102 274//102 272//5 271//5
f 222//18 212//18 274//102 273//102
f 227//16 210//16 220//2 216//2
f 234//16 202//16 201//2 243//2
f 238//18 196//18 195//170 189//170
f 189//170 195//170 275//5 190//5
f 190//5 275//5 276//171 197//171
f 197//171 276//171 277//8 203//8
f 203//8 277//8 278//9 205//9
f 205//9 278//9 279//4 207//4
f 207//4 279//4 280//10 209//10
f 209//10 280//10 281//11 211//11
f 211//11 281//11 282//172 218//172
f 218//172 282//172 283//13 223//13
f 223//13 283//13 284//173 228//173
f 228//173 284//173 285//15 231//15
f 231//15 285//15 202//16 234//16
f 237//17 240//17 196//18 238//18
f 243//2 201//2 240//17 237//17
f 194//111 246//174 275//174 195//112
f 65//175 68//106 192//109 264//176
f 188//104 175//162 238//164 189//104
f 246//174 248//177 276//178 275//174
f 62//179 65//175 264//176 266//180
f 173//169 177//158 234//159 243//169
f 248//177 250//181 277//181 276//178
f 59//182 62//179 266//180 268//183
f 250//181 252//184 278//185 277//181
f 56//186 59//182 268//183 270//187
f 215//139 224//149 227//151 216//140
f 252//184 254//188 279//188 278//185
f 52//189 56//186 270//187 272//189
f 244//190 221//145 222//146 273//191
f 254//188 256//192 280//193 279//188
f 49//194 52//189 272//189 274//195
f 245//196 244//190 273//191 271//196
f 256//192 257//197 281//197 280//193
f 89//135 49//194 274//195 212//136
f 247//198 245//196 271//196 269//199
f 257//197 258//200 282//201 281//197
f 85//130 219//143 220//144 210//131
f 249//202 247//198 269//199 267//202
f 258//200 259//203 283//203 282//201
f 251//204 249//202 267//202 265//205
f 259//203 260//206 284//207 283//203
f 253//208 251//204 265//205 263//209
f 260//206 261//210 285//210 284//207
f 255//211 253//208 263//209 262//212
f 261//210 199//116 202//118 285//210
f 241//167 255//211 262//212 242//168
f 239//165 193//110 196//110 240//166
f 286//1 111//38 116//43 287//1
f 287//1 116//43 121//48 288//1
f 288//1 121//48 126//53 172//1
f 156//83 287//1 288//1 151//78
f 151//78 288//1 172//1 146//73
f 146//73 172//1 136//63 141//68
f 161//88 286//1 287//1 156//83
f 166//93 289//1 286//1 161//88
f 289//1 106//33 111//38 286//1
f 171//98 101//28 289//1 166//93
f 101//28 100//27 106//33 289//1
f 85//16 84//16 290//2 219//2
f 77//13 76//13 81//14 80//14
f 71//11 70//11 75//12 74//12
f 65//4 64//4 69//10 68//10
f 59//8 58//8 63//9 62//9
f 52//5 51//5 57//7 56//7
f 89//18 88//18 50//6 49//6
f 87//213 290//214 47//215 46//213
f 88//216 87//213 46//213 45//216
f 50//217 88//216 45//216 90//217
f 51//218 50//217 90//217 54//218
f 57//219 51//218 54//218 53//219
f 58//220 57//219 53//219 55//220
f 63//221 58//220 55//220 60//221
f 64//222 63//221 60//221 61//223
f 69//224 64//222 61//223 66//224
f 70//225 69//224 66//224 67//225
f 75//226 70//225 67//225 72//226
f 76//227 75//226 72//226 73//227
f 81//228 76//227 73//227 78//228
f 82//229 81//228 78//228 79//229
f 84//230 82//229 79//229 91//230
f 290//214 84//230 91//230 47//215
f 219//2 290//2 87//17 86//17
f 291//13 292//13 293//231 294//231
f 294//231 293//231 295//232 296//232
f 296//232 295//232 297//233 298//233
f 298//233 297//233 299//3 300//3
f 300//3 299//3 301//234 302//234
f 302//234 301//234 303//235 304//235
f 304//235 303//235 305//236 306//236
f 306//236 305//236 307//5 308//5
f 308//5 307//5 309//237 310//237
f 310//237 309//237 311//238 312//238
f 312//238 311//238 313//239 314//239
f 315//2 316//2 317//2 318//2
f 319//4 320//4 321//4 322//4
f 323//240 324//240 325//241 326//241
f 327//236 328//242 329//242 330//236
f 326//241 325//241 331//243 332//243
f 332//243 331//243 292//13 291//13
f 333//5 327//236 330//236 334//5
f 335//2 334//2 291//2 294//2
f 333//4 336//4 293//4 292//4
f 337//2 335//2 294//2 296//2
f 336//4 338//4 295//4 293//4
f 339//2 337//2 296//2 298//2
f 338//4 340//4 297//4 295//4
f 341//2 339//2 298//2 300//2
f 340//4 342//4 299//4 297//4
f 343//2 341//2 300//2 302//2
f 342//4 344//4 301//4 299//4
f 345//2 343//2 302//2 304//2
f 344//4 346//4 303//4 301//4
f 347//2 345//2 304//2 306//2
f 346//4 348//4 305//4 303//4
f 349//2 347//2 306//2 308//2
f 348//4 350//4 307//4 305//4
f 351//2 349//2 308//2 310//2
f 350//4 352//4 309//4 307//4
f 353//2 351//2 310//2 312//2
f 352//4 354//4 311//4 309//4
f 355//2 353//2 312//2 314//2
f 354//4 356//4 313//4 311//4
f 357//2 355//2 314//2 358//2
f 356//4 359//4 360//4 313//4
f 361//2 357//2 358//2 323//2
f 359//4 362//4 324//4 360//4
f 329//2 361//2 323//2 326//2
f 362//4 328//4 325//4 324//4
f 330//2 329//2 326//2 332//2
f 328//4 327//4 331//4 325//4
f 334//2 330//2 332//2 291//2
f 327//4 333//4 292//4 331//4
f 328//242 362//234 361//234 329//242
f 362//234 359//3 357//3 361//234
f 359//3 356//233 355//233 357//3
f 356//233 354//244 353//244 355//233
f 354//244 352//231 351//231 353//244
f 352//231 350//13 349//13 351//231
f 350//13 348//243 347//243 349//13
f 348//243 346//241 345//241 347//243
f 346//241 344//245 343//245 345//241
f 344//245 342//1 341//1 343//245
f 342//1 340//246 339//246 341//1
f 340//246 338//238 337//238 339//246
f 338//238 336//237 335//237 337//238
f 336//237 333//5 334//5 335//237
f 320//247 363//247 364//248 321//248
f 363//2 315//2 318//2 364//2
f 365//4 319//4 322//4 366//4
f 316//249 365//249 366//250 317//250
f 314//239 313//239 367//251 368//251
f 313//4 360//4 369//4 367//4
f 323//2 358//2 370//2 371//2
f 324//240 323//240 371//252 372//252
f 360//4 324//4 372//4 369//4
f 358//2 314//2 368//2 370//2
f 373//253 374//253 375//254 376//254
f 374//4 377//4 378//4 375//4
f 379//2 380//2 381//2 382//2
f 383//255 379//255 382//256 384//256
f 377//4 383//4 384//4 378//4
f 380//2 373//2 376//2 381//2
f 376//254 375//254 365//249 316//249
f 375//4 378//4 319//4 365//4
f 382//2 381//2 315//2 363//2
f 384//256 382//256 363//247 320//247
f 378//4 384//4 320//4 319//4
f 381//2 376//2 316//2 315//2
f 370//2 368//2 373//2 380//2
f 369//4 372//4 383//4 377//4
f 372//257 371//257 379//255 383//255
f 371//2 370//2 380//2 379//2
f 367//4 369//4 377//4 374//4
f 368//258 367//258 374//253 373//253
